[gd_scene load_steps=4 format=3 uid="uid://pj3kseqtqnt3"]

[ext_resource type="Texture2D" uid="uid://d02vnq4hkxs4t" path="res://assets/juoksee.png" id="1_32j57"]

[sub_resource type="Animation" id="Animation_7spwx"]
resource_name = "Fade"
length = 0.5
tracks/0/type = "value"
tracks/0/imported = false
tracks/0/enabled = true
tracks/0/path = NodePath(".:color")
tracks/0/interp = 1
tracks/0/loop_wrap = true
tracks/0/keys = {
"times": PackedFloat32Array(0, 0.5),
"transitions": PackedFloat32Array(1, 1),
"update": 0,
"values": [Color(0, 0, 0, 0), Color(0, 0, 0, 1)]
}

[sub_resource type="AnimationLibrary" id="AnimationLibrary_8ppvn"]
_data = {
"Fade": SubResource("Animation_7spwx")
}

[node name="Node2D" type="Node2D"]

[node name="TextureRect" type="TextureRect" parent="."]
offset_right = 40.0
offset_bottom = 40.0
scale = Vector2(0.642764, 0.632011)
texture = ExtResource("1_32j57")

[node name="ColorRect" type="FadingCracktangle" parent="."]
custom_minimum_size = Vector2(1000, 1000)
anchors_preset = 15
anchor_right = 1.0
anchor_bottom = 1.0
offset_left = -43.0
offset_top = -179.0
offset_right = 1213.0
offset_bottom = 821.0
grow_horizontal = 2
grow_vertical = 2
size_flags_horizontal = 3
color = Color(0, 0, 0, 0)

[node name="AnimationPlayer" type="AnimationPlayer" parent="ColorRect"]
libraries = {
"": SubResource("AnimationLibrary_8ppvn")
}

[node name="Label" type="Label" parent="."]
offset_left = 342.0
offset_top = 127.0
offset_right = 612.0
offset_bottom = 175.0
text = "Juoksentelisimmekohankaan?"
